<svg width="16" height="16" viewBox="0 0 16 16" fill="none" xmlns="http://www.w3.org/2000/svg">
<path d="M13.6666 6H3.68994L2.55461 4.29667C2.43061 4.11133 2.22261 4 1.99994 4H0.666607C0.461274 4 0.267274 4.09467 0.141274 4.25667C0.015274 4.41867 -0.0300593 4.62933 0.0199407 4.82867L1.35327 10.162C1.42794 10.4587 1.69394 10.6667 1.99994 10.6667H7.42127L5.44527 13.63C5.30927 13.8347 5.29594 14.0973 5.41194 14.314C5.52794 14.5307 5.75394 14.6667 5.99994 14.6667H8.66661C8.88927 14.6667 9.09727 14.5553 9.22127 14.37L11.6899 10.6667H13.6666C14.9533 10.6667 15.9999 9.62 15.9999 8.33333C15.9999 7.04667 14.9533 6 13.6666 6Z" fill="white"/>
<path d="M6.84787 4.66658H11.0779L9.2352 1.65259C9.11453 1.45392 8.8992 1.33325 8.66653 1.33325H5.99987C5.7592 1.33325 5.53653 1.46325 5.41853 1.67392C5.30053 1.88459 5.3052 2.14192 5.4312 2.34792L6.84787 4.66658Z" fill="white"/>
</svg>
