<svg width="16" height="16" viewBox="0 0 16 16" fill="none" xmlns="http://www.w3.org/2000/svg">
<path d="M15.716 7.504L12.287 1.504C12.11 1.192 11.779 1 11.42 1H4.58C4.221 1 3.89 1.192 3.712 1.504L0.283001 7.504C0.107001 7.811 0.107001 8.189 0.283001 8.496L3.712 14.496C3.89 14.808 4.221 15 4.58 15H11.419C11.778 15 12.109 14.808 12.287 14.496L15.716 8.496C15.892 8.189 15.892 7.811 15.716 7.504ZM8 11C6.343 11 5 9.657 5 8C5 6.343 6.343 5 8 5C9.657 5 11 6.343 11 8C11 9.657 9.657 11 8 11Z" fill="#31BB71"/>
</svg>
