<svg width="16" height="16" viewBox="0 0 16 16" fill="none" xmlns="http://www.w3.org/2000/svg">
<path fill-rule="evenodd" clip-rule="evenodd" d="M8.30496 11.6604C8.12492 11.5164 7.87508 11.5164 7.69504 11.6604L4.90789 13.8894C4.51131 14.2065 3.96344 13.7898 4.12901 13.2969L5.29267 9.83307C5.36784 9.6093 5.29064 9.36056 5.10419 9.22579L2.21798 7.13952C1.80731 6.84267 2.01657 6.1684 2.51549 6.18096L6.02182 6.26918C6.24832 6.27487 6.45044 6.12114 6.51526 5.89386L7.51863 2.37547C7.6614 1.87484 8.3386 1.87484 8.48137 2.37547L9.48474 5.89386C9.54956 6.12114 9.75168 6.27487 9.97818 6.26918L13.4845 6.18096C13.9834 6.1684 14.1927 6.84267 13.782 7.13952L10.8958 9.22579C10.7094 9.36056 10.6322 9.6093 10.7073 9.83307L11.871 13.2969C12.0366 13.7898 11.4887 14.2065 11.0921 13.8894L8.30496 11.6604Z" fill="#FD5C63"/>
</svg>
